…
    devtools::install_github("hui-tony-zk/PDclust")

Warning: this package requires the `tidyverse` suite of packages to work. I recommend you `install.packages(tidyverse)` first. If you're unfamiliar with the `tidyverse` suite, I highly recommend you learn more about it.

Step 1: Read in files
---------------------

The input is a named list of data frames containing CpG calls for each single-cell. The four columns should be named as follows: `chr`, `start`, `end`, `meth` (for percent methylation).

There is a sample dataset included with this package that contains three single-cells and containing only chr22 to reduce file size.

``` r
cpg_files
#> $px0494_TACAGCA
#> # A tibble: 33,770 x 4
#>      chr    start      end  meth
#>    <chr>    <int>    <int> <dbl>
#>  1 chr22 16069420 16069421   100
#>  2 chr22 16069513 16069514   100
#>  3 chr22 16069531 16069532   100
#>  4 chr22 16127391 16127392   100
#>  5 chr22 16127421 16127422   100
#>  6 chr22 16127431 16127432     0
#>  7 chr22 16127637 16127638   100
#>  8 chr22 16144984 16144985   100
#>  9 chr22 16154880 16154881   100
#> 10 chr22 16154917 16154918   100
#> # ... with 33,760 more rows
#> 
#> $px0493_ATGTCAA
#> # A tibble: 28,962 x 4
#>      chr    start      end  meth
#>    <chr>    <int>    <int> <dbl>
#>  1 chr22 16056574 16056575   100
#>  2 chr22 16056839 16056840   100
#>  3 chr22 16056862 16056863     0
#>  4 chr22 16056917 16056918   100
#>  5 chr22 16059002 16059003     0
#>  6 chr22 16073465 16073466   100
#>  7 chr22 16124089 16124090   100
#>  8 chr22 16124117 16124118   100
#>  9 chr22 16124122 16124123   100
#> 10 chr22 16124133 16124134   100
#> # ... with 28,952 more rows
#> 
#> $px0494_GAATAAA
#> # A tibble: 49,122 x 4
#>      chr    start      end  meth
#>    <chr>    <int>    <int> <dbl>
#>  1 chr22 16069513 16069514   100
#>  2 chr22 16069531 16069532     0
#>  3 chr22 16122837 16122838   100
#>  4 chr22 16122844 16122845   100
#>  5 chr22 16122849 16122850   100
#>  6 chr22 16122857 16122858   100
#>  7 chr22 16122869 16122870     0
#>  8 chr22 16122875 16122876   100
#>  9 chr22 16122887 16122888   100
#> 10 chr22 16122890 16122891   100
#> # ... with 49,112 more rows
```
…
If you want to use your own metric, you can use this function to generate the pairwise joins

``` r
create_pairwise_master(cpg_files, calcdiff = FALSE)
#> $px0494_TACAGCA_px0493_ATGTCAA
#> # A tibble: 2,423 x 4
#>      chr      pos px0494_TACAGCA px0493_ATGTCAA
#>    <chr>    <int>          <dbl>          <dbl>
#>  1 chr22 16211300              0            100
#>  2 chr22 16211399            100              0
#>  3 chr22 16869589            100            100
#>  4 chr22 16884435            100            100
#>  5 chr22 16884438            100            100
#>  6 chr22 16884443            100            100
#>  7 chr22 16884449            100            100
#>  8 chr22 16884464            100            100
#>  9 chr22 17041719              0            100
#> 10 chr22 17041745            100              0
#> # ... with 2,413 more rows
#> 
#> $px0494_TACAGCA_px0494_GAATAAA
#> # A tibble: 3,665 x 4
#>      chr      pos px0494_TACAGCA px0494_GAATAAA
#>    <chr>    <int>          <dbl>          <dbl>
#>  1 chr22 16069513            100            100
#>  2 chr22 16069531            100              0
#>  3 chr22 16228528            100              0
#>  4 chr22 16228531            100            100
#>  5 chr22 16228545            100              0
#>  6 chr22 16228563            100              0
#>  7 chr22 16228599            100              0
#>  8 chr22 16228660            100            100
#>  9 chr22 16364928            100            100
#> 10 chr22 16869495            100            100
#> # ... with 3,655 more rows
#> 
#> $px0493_ATGTCAA_px0494_GAATAAA
#> # A tibble: 3,498 x 4
#>      chr      pos px0493_ATGTCAA px0494_GAATAAA
#>    <chr>    <int>          <dbl>          <dbl>
#>  1 chr22 16192355            100            100
#>  2 chr22 16192363            100            100
#>  3 chr22 16192401            100            100
#>  4 chr22 16192451            100            100
#>  5 chr22 16288217            100            100
#>  6 chr22 16288248            100              0
#>  7 chr22 16288274              0            100
#>  8 chr22 16288291            100            100
#>  9 chr22 16288310            100            100
#> 10 chr22 16288337            100            100
#> # ... with 3,488 more rows
```
…
